module gitlab.com/goapi

go 1.19

require (
	github.com/andybalholm/brotli v1.0.4 // indirect
	github.com/gofiber/fiber/v2 v2.40.1 // indirect
	github.com/jackc/chunkreader/v2 v2.0.1 // indirect
	github.com/jackc/pgconn v1.13.0 // indirect
	github.com/jackc/pgio v1.0.0 // indirect
	github.com/jackc/pgpassfile v1.0.0 // indirect
	github.com/jackc/pgproto3/v2 v2.3.1 // indirect
	github.com/jackc/pgservicefile v0.0.0-20200714003250-2b9c44734f2b // indirect
	github.com/jackc/pgtype v1.12.0 // indirect
	github.com/jackc/pgx/v4 v4.17.2 // indirect
	github.com/jinzhu/inflection v1.0.0 // indirect
	github.com/jinzhu/now v1.1.5 // indirect
	github.com/joho/godotenv v1.4.0 // indirect
	github.com/klauspost/compress v1.15.12 // indirect
	github.com/mattn/go-colorable v0.1.13 // indirect
	github.com/mattn/go-isatty v0.0.16 // indirect
	github.com/mattn/go-runewidth v0.0.14 // indirect
	github.com/rivo/uniseg v0.4.3 // indirect
	github.com/valyala/bytebufferpool v1.0.0 // indirect
	github.com/valyala/fasthttp v1.42.0 // indirect
	github.com/valyala/tcplisten v1.0.0 // indirect
	golang.org/x/crypto v0.3.0 // indirect
	golang.org/x/sys v0.2.0 // indirect
	golang.org/x/text v0.4.0 // indirect
	gorm.io/driver/postgres v1.4.5 // indirect
	gorm.io/gorm v1.24.2 // indirect
)
